<svg xmlns="http://www.w3.org/2000/svg" width="276" height="188" viewBox="0 0 276 188">
  <g id="Group_13" data-name="Group 13" transform="translate(-519 -333)">
    <path id="Path_22" data-name="Path 22" d="M519.255,341a12.832,12.832,0,0,0-.255,2.546V506.1a12.718,12.718,0,0,0,12.706,12.73H584.59V341Z" transform="translate(0 2.165)" fill="#001a2d"/>
    <path id="Rectangle_213" data-name="Rectangle 213" d="M0,0H200.41a10,10,0,0,1,10,10V178a10,10,0,0,1-10,10H0a0,0,0,0,1,0,0V0A0,0,0,0,1,0,0Z" transform="translate(584.59 333)" fill="#fff"/>
    <rect id="Rectangle_214" data-name="Rectangle 214" width="30.973" height="4.251" rx="1.673" transform="translate(525.68 381.019)" fill="#e0dfdf"/>
    <rect id="Rectangle_215" data-name="Rectangle 215" width="44.941" height="4.251" rx="1.673" transform="translate(525.68 393.796)" fill="#00c081"/>
    <rect id="Rectangle_216" data-name="Rectangle 216" width="38.868" height="4.251" rx="1.673" transform="translate(525.68 407.79)" fill="#e0dfdf"/>
    <rect id="Rectangle_217" data-name="Rectangle 217" width="17.005" height="4.251" rx="1.673" transform="translate(525.68 423.001)" fill="#e0dfdf"/>
    <g id="Group_10" data-name="Group 10" transform="translate(543.9 344.763)">
      <path id="Path_23" data-name="Path 23" d="M546.166,345.731l.933.933.933-.933-.933-.933Zm-.623,0,1.555-1.555,1.556,1.555-1.556,1.556Zm6.586-3.473-2.2,2.2,2.514,2.515-.311.313-5.03-5.029-5.029,5.029-1.555-1.556,1.555-1.555.313.311-1.245,1.244.933.933,2.2-2.2-2.2-2.2-3.472,3.473,3.472,3.473,2.515-2.513L547.1,349.2l2.516-2.515,2.515,2.515,2.2-2.2-2.513-2.515.311-.311,2.514,2.515.958-.959Z" transform="translate(-538.597 -342.258)" fill="#e0dfdf"/>
      <rect id="Rectangle_218" data-name="Rectangle 218" width="2.199" height="1.356" transform="translate(8.502 5.028) rotate(-45)" fill="#e0dfdf"/>
      <rect id="Rectangle_219" data-name="Rectangle 219" width="2.199" height="1.356" transform="matrix(0.707, -0.707, 0.707, 0.707, 3.473, 5.028)" fill="#e0dfdf"/>
    </g>
    <rect id="Rectangle_220" data-name="Rectangle 220" width="80.166" height="7.288" transform="translate(593.198 381.189)" fill="#f7f7f7"/>
    <rect id="Rectangle_221" data-name="Rectangle 221" width="50.407" height="62.553" transform="translate(722.122 419.593)" fill="#f7f7f7"/>
    <rect id="Rectangle_222" data-name="Rectangle 222" width="78.951" height="7.288" transform="translate(594.414 423.172)" fill="#f7f7f7"/>
    <rect id="Rectangle_223" data-name="Rectangle 223" width="112.526" height="7.288" transform="translate(594.436 439.601)" fill="#f7f7f7"/>
    <rect id="Rectangle_224" data-name="Rectangle 224" width="78.517" height="7.288" transform="translate(594.849 457.246)" fill="#f7f7f7"/>
    <rect id="Rectangle_225" data-name="Rectangle 225" width="97.343" height="7.288" transform="translate(594.86 474.891)" fill="#f7f7f7"/>
    <rect id="Rectangle_226" data-name="Rectangle 226" width="171.263" height="0.607" transform="translate(593.371 395.788)" fill="#e2e0e0"/>
    <rect id="Rectangle_227" data-name="Rectangle 227" width="26.115" height="7.288" transform="translate(596.823 496.1)" fill="#f7f7f7"/>
    <rect id="Rectangle_228" data-name="Rectangle 228" width="171.263" height="0.607" transform="translate(597.015 510.675)" fill="#e2e0e0"/>
    <g id="Group_11" data-name="Group 11" transform="translate(519.255 333)">
      <path id="Path_24" data-name="Path 24" d="M786.634,333H584.8a.2.2,0,0,0-.2.2V333H531.664A12.72,12.72,0,0,0,519.2,343.165H794.946V341.3A8.308,8.308,0,0,0,786.634,333Z" transform="translate(-519.201 -333)" fill="#001a2d"/>
    </g>
    <g id="Group_12" data-name="Group 12" transform="translate(584.869 333)">
      <path id="Path_25" data-name="Path 25" d="M570.621,343.165H780.554a.2.2,0,0,0,.2-.2v-2.122A7.844,7.844,0,0,0,772.908,333H570.621Z" transform="translate(-570.621 -333)" fill="#efefef"/>
    </g>
    <rect id="Rectangle_229" data-name="Rectangle 229" width="179.238" height="17.788" transform="translate(593.515 354.6)" fill="#dc3545"/>
  </g>
</svg>
