<svg xmlns="http://www.w3.org/2000/svg" width="86.817" height="102.597" viewBox="0 0 86.817 102.597">
  <g id="Group_180" data-name="Group 180" transform="translate(-1441.205 -1418.906)">
    <g id="Group_48" data-name="Group 48">
      <rect id="Rectangle_31" data-name="Rectangle 31" width="74.625" height="94.978" rx="2.96" transform="translate(1452.397 1419.906)" stroke-dasharray="64.541 7.171 35.856 0 1.006 0.503" stroke="#fff" stroke-linecap="round" stroke-miterlimit="10" stroke-width="2" fill="none"/>
      <rect id="Rectangle_32" data-name="Rectangle 32" width="74.625" height="94.978" rx="2.96" transform="translate(1442.205 1425.526)" fill="#fff"/>
      <line id="Line_140" data-name="Line 140" y2="89.677" transform="translate(1479.517 1428)" fill="none" stroke="#efefef" stroke-linecap="round" stroke-miterlimit="10" stroke-width="5" stroke-dasharray="19.583 9.792 48.958 3.435 1.374 0.686"/>
      <path id="Path_7" data-name="Path 7" d="M1442.2,1430.355v87.714a2.434,2.434,0,0,0,2.434,2.434h30.553a2.435,2.435,0,0,0,2.434-2.442l-.308-90.11a2.433,2.433,0,0,0-2.434-2.425h-27.85A4.829,4.829,0,0,0,1442.2,1430.355Z" fill="#efefef"/>
      <rect id="Rectangle_33" data-name="Rectangle 33" width="74.625" height="94.978" rx="2.96" transform="translate(1442.205 1425.526)" stroke-dasharray="64.541 7.171 35.856 0 1.006 0.503" stroke="#80d9f1" stroke-linecap="round" stroke-miterlimit="10" stroke-width="2" fill="none"/>
    </g>
    <g id="Group_49" data-name="Group 49">
      <rect id="Rectangle_34" data-name="Rectangle 34" width="38.234" height="10.855" transform="translate(1470.592 1433.497)" fill="none" stroke="#008acf" stroke-miterlimit="10" stroke-width="1.036"/>
      <rect id="Rectangle_35" data-name="Rectangle 35" width="25.44" height="10.855" transform="translate(1450.176 1504.73)" fill="none" stroke="#008acf" stroke-miterlimit="10" stroke-width="1"/>
      <line id="Line_170" data-name="Line 170" x2="50.881" transform="translate(1450.685 1458.766)" fill="none" stroke="#008acf" stroke-linecap="round" stroke-miterlimit="10" stroke-width="1.7" stroke-dasharray="21.514 2.151 48.958 3.435 1.374 0.686"/>
      <line id="Line_171" data-name="Line 171" x2="50.881" transform="translate(1450.515 1468.859)" fill="none" stroke="#008acf" stroke-linecap="round" stroke-miterlimit="10" stroke-width="1.7" stroke-dasharray="35.856 2.151 2.151 3.435 1.374 0.686"/>
      <line id="Line_172" data-name="Line 172" x2="32.903" transform="translate(1450.854 1463.875)" fill="none" stroke="#008acf" stroke-linecap="round" stroke-miterlimit="10" stroke-width="1.7"/>
      <rect id="Rectangle_36" data-name="Rectangle 36" width="58.343" height="24.423" transform="translate(1450.515 1474.541)" fill="none" stroke="#008acf" stroke-miterlimit="10" stroke-width="1"/>
      <line id="Line_173" data-name="Line 173" x2="58.343" y2="24.423" transform="translate(1450.515 1474.541)" fill="none" stroke="#008acf" stroke-miterlimit="10" stroke-width="1"/>
      <line id="Line_174" data-name="Line 174" x1="58.343" y2="24.423" transform="translate(1450.515 1474.541)" fill="none" stroke="#008acf" stroke-miterlimit="10" stroke-width="1"/>
      <rect id="Rectangle_37" data-name="Rectangle 37" width="25.44" height="10.855" transform="translate(1483.418 1504.73)" fill="none" stroke="#008acf" stroke-miterlimit="10" stroke-width="1"/>
      <line id="Line_175" data-name="Line 175" x2="38.234" y2="10.855" transform="translate(1470.592 1433.497)" fill="none" stroke="#008acf" stroke-miterlimit="10" stroke-width="1"/>
      <line id="Line_176" data-name="Line 176" x1="38.234" y2="10.855" transform="translate(1470.592 1433.497)" fill="none" stroke="#008acf" stroke-miterlimit="10" stroke-width="1"/>
      <line id="Line_177" data-name="Line 177" x2="25.44" y2="10.855" transform="translate(1450.176 1504.73)" fill="none" stroke="#008acf" stroke-miterlimit="10" stroke-width="1"/>
      <line id="Line_178" data-name="Line 178" x1="25.44" y2="10.855" transform="translate(1450.176 1504.73)" fill="none" stroke="#008acf" stroke-miterlimit="10" stroke-width="1"/>
      <line id="Line_179" data-name="Line 179" x2="25.44" y2="10.855" transform="translate(1483.418 1504.73)" fill="none" stroke="#008acf" stroke-miterlimit="10" stroke-width="1"/>
      <line id="Line_180" data-name="Line 180" x1="25.44" y2="10.855" transform="translate(1483.418 1504.73)" fill="none" stroke="#008acf" stroke-miterlimit="10" stroke-width="1"/>
    </g>
    <circle id="Ellipse_35" data-name="Ellipse 35" cx="6.504" cy="6.504" r="6.504" transform="translate(1450.705 1433.099)" fill="#00b2e2" stroke="#008acf" stroke-miterlimit="10" stroke-width="1.201"/>
  </g>
</svg>
