<svg xmlns="http://www.w3.org/2000/svg" width="114.5" height="111.636" viewBox="0 0 114.5 111.636">
  <g id="adobe-xd" transform="translate(-917.952 -141.614)">
    <path id="Path_432" data-name="Path 432" d="M919.718,143.379h104.958v102.1H919.718Z" transform="translate(3.006 3.004)" fill="#2e001e"/>
    <path id="Path_433" data-name="Path 433" d="M917.952,141.614V253.25h114.5V141.614Zm4.771,4.769h104.958v102.1H922.723Z" transform="translate(0 0)" fill="#ff2bc2"/>
    <path id="Path_434" data-name="Path 434" d="M987.519,171.838a6.547,6.547,0,0,0-2.767-.475c-6.009,0-10.018,4.633-10.018,12.309,0,8.778,4.1,12.309,9.448,12.309a8.983,8.983,0,0,0,3.291-.516V171.838Zm-21.365,12.215c0-11.115,7.157-19.8,18.893-19.8a21.717,21.717,0,0,1,2.48.095V151.934a.48.48,0,0,1,.478-.476h7.671c.381,0,.475.143.475.381v43.606a33.753,33.753,0,0,0,.24,4.674c0,.335,0,.381-.286.516a28.421,28.421,0,0,1-12.209,2.783c-10.353,0-17.748-6.4-17.748-19.372Zm-16.267-7.722,13.355,25.9c.24.381.094.773-.286.773h-8.305a.935.935,0,0,1-1-.619q-4.579-9.447-9.351-19.609h-.105c-2.861,6.395-6.009,13.357-9.062,19.658a.912.912,0,0,1-.859.513h-7.911c-.478,0-.516-.381-.286-.665l13.071-25.143-12.641-25a.422.422,0,0,1,.008-.6.41.41,0,0,1,.327-.119h8.205c.478,0,.716.095.862.513,3,6.346,6.057,12.6,8.921,18.988h.094c2.767-6.3,5.82-12.641,8.732-18.893.238-.381.381-.619.859-.619h7.681c.381,0,.516.286.286.716Z" transform="translate(13.588 16.67)" fill="#ff2bc2"/>
  </g>
</svg>
